…
I consider this package to be a **core** feature of the power of the `tidyverse` and R Studio in helping young researchers become independent. Think of filtering, sorting, and pivot tables (all functions in Excel) on steroids. 

## `filter()`

During our first week, we learned two ways of subsetting data: 1) the indexing method and 2) the `subset()` function. This will be a newer, simpler way to do it. First, just to make our code output easier to manage, we are going to coerce our data frame into a _tibble_. Remember this is a special kind of data frame that is used in the `tidyverse`. We will learn much more about tibbles in a couple of weeks but for now, it's usefult to know that it only prints the first 10 rows of data instead of the entire dataset. 


```r
cs_lex <- as_tibble(cs_data)
cs_lex
```

```
## # A tibble: 1,344 x 12
##    Subject Condition Gender  Type   Birth Time.100 Target Distractor Other
##      <int>     <int> <fct>   <fct>  <fct>    <int>  <int>      <int> <int>
##  1      15         1 Femini… Contr… Latin       50    364        233   174
##  2      15         1 Femini… Contr… Latin      150    336        267   207
##  3      15         1 Femini… Contr… Latin      250    507         70   228
##  4      15         1 Femini… Contr… Latin      350    597        182    84
##  5      15         1 Femini… Contr… Latin      450    615        286    24
##  6      15         1 Femini… Contr… Latin      550    657        263     0
##  7      15         1 Femini… Contr… Latin      650    719         29    46
##  8      15         1 Femini… Contr… Latin      750    802          0   100
##  9      15         2 Femini… Match  Latin       50    295        269   280
## 10      15         2 Femini… Match  Latin      150    400        283   281
## # ... with 1,334 more rows, and 3 more variables: Saccade <int>,
## #   Track_Loss <int>, Bins <int>
```

With `filter()`, the first argument is the dataset and the next arguments are the conditionals by which you want to filter the data. We can for example only look at participants born in the US.


```r
filter(cs_lex, Birth == "US")
```

```
## # A tibble: 480 x 12
##    Subject Condition Gender  Type   Birth Time.100 Target Distractor Other
##      <int>     <int> <fct>   <fct>  <fct>    <int>  <int>      <int> <int>
##  1      54         1 Femini… Contr… US          50    371        455   121
##  2      54         1 Femini… Contr… US         150    400        400   200
##  3      54         1 Femini… Contr… US         250    538        241    60
##  4      54         1 Femini… Contr… US         350    762         82    63
##  5      54         1 Femini… Contr… US         450    771         93    41
##  6      54         1 Femini… Contr… US         550    896          0     0
##  7      54         1 Femini… Contr… US         650    978          0     0
##  8      54         1 Femini… Contr… US         750    973          0     0
##  9      54         2 Femini… Match  US          50    100        630    76
## 10      54         2 Femini… Match  US         150    237        560    64
## # ... with 470 more rows, and 3 more variables: Saccade <int>,
## #   Track_Loss <int>, Bins <int>
```

We can combine and filter by US birth as well as only feminine conditions.


```r
filter(cs_lex, Birth == "US", Gender == "Feminine")
```

```
## # A tibble: 240 x 12
##    Subject Condition Gender  Type   Birth Time.100 Target Distractor Other
##      <int>     <int> <fct>   <fct>  <fct>    <int>  <int>      <int> <int>
##  1      54         1 Femini… Contr… US          50    371        455   121
##  2      54         1 Femini… Contr… US         150    400        400   200
##  3      54         1 Femini… Contr… US         250    538        241    60
##  4      54         1 Femini… Contr… US         350    762         82    63
##  5      54         1 Femini… Contr… US         450    771         93    41
##  6      54         1 Femini… Contr… US         550    896          0     0
##  7      54         1 Femini… Contr… US         650    978          0     0
##  8      54         1 Femini… Contr… US         750    973          0     0
##  9      54         2 Femini… Match  US          50    100        630    76
## 10      54         2 Femini… Match  US         150    237        560    64
## # ... with 230 more rows, and 3 more variables: Saccade <int>,
## #   Track_Loss <int>, Bins <int>
```

### Comparisons
This function makes life easy if we want to select specific values but sometimes we need to add different kinds of comparison operators. Just remember that some of the comparisons require numbers (`>, <, <=, >=`), and always remember: **`==` is for values where `=` is for arguments**. We also have a special symbol for _not equals_: `!=`. 


```r
filter(cs_lex, Time.100 > 350)
```

```
## # A tibble: 672 x 12
##    Subject Condition Gender   Type  Birth Time.100 Target Distractor Other
##      <int>     <int> <fct>    <fct> <fct>    <int>  <int>      <int> <int>
##  1      15         1 Feminine Cont… Latin      450    615        286    24
##  2      15         1 Feminine Cont… Latin      550    657        263     0
##  3      15         1 Feminine Cont… Latin      650    719         29    46
##  4      15         1 Feminine Cont… Latin      750    802          0   100
##  5      15         2 Feminine Match Latin      450    283         81   445
##  6      15         2 Feminine Match Latin      550    372         34   438
##  7      15         2 Feminine Match Latin      650    562          0   321
##  8      15         2 Feminine Match Latin      750    636          0   259
##  9      15         4 Masculi… Cont… Latin      450    300        250   400
## 10      15         4 Masculi… Cont… Latin      550    339         71   433
## # ... with 662 more rows, and 3 more variables: Saccade <int>,
## #   Track_Loss <int>, Bins <int>
```

```r
filter(cs_lex, Gender != "Feminine")
```

```
## # A tibble: 672 x 12
##    Subject Condition Gender   Type  Birth Time.100 Target Distractor Other
##      <int>     <int> <fct>    <fct> <fct>    <int>  <int>      <int> <int>
##  1      15         4 Masculi… Cont… Latin       50    232        333   175
##  2      15         4 Masculi… Cont… Latin      150    400        358   205
##  3      15         4 Masculi… Cont… Latin      250    376        299   126
##  4      15         4 Masculi… Cont… Latin      350    286        347   246
##  5      15         4 Masculi… Cont… Latin      450    300        250   400
##  6      15         4 Masculi… Cont… Latin      550    339         71   433
##  7      15         4 Masculi… Cont… Latin      650    547         91   280
##  8      15         4 Masculi… Cont… Latin      750    729        100    76
##  9      15         5 Masculi… Match Latin       50    223        617     0
## 10      15         5 Masculi… Match Latin      150    332        548     0
## # ... with 662 more rows, and 3 more variables: Saccade <int>,
## #   Track_Loss <int>, Bins <int>
```
…
