…
```r
cs3 %>% 
  count(missing_Track_Loss, Subject) %>% 
  arrange(Subject)
```

```
## # A tibble: 33 x 3
##    missing_Track_Loss Subject     n
##    <lgl>              <chr>   <int>
##  1 FALSE              03         48
##  2 FALSE              06         48
##  3 FALSE              07         48
##  4 FALSE              09         48
##  5 FALSE              11         46
##  6 TRUE               11          2
##  7 FALSE              12         47
##  8 TRUE               12          1
##  9 FALSE              14         48
## 10 FALSE              15         48
## # ... with 23 more rows
```
…
