…
```r
sample2 <- as_tibble(sample)
sample2
```

```
## # A tibble: 52 x 6
##    RECORDING_SESSION_LABEL aux_type response_accuracy count  prop Group
##    <fct>                   <fct>    <fct>             <int> <dbl> <fct>
##  1 118cc                   E        correct              14 87.5  late 
##  2 118cc                   E        incorrect             2 12.5  late 
##  3 118cc                   H        correct              15 93.8  late 
##  4 118cc                   H        incorrect             1  6.25 late 
##  5 11cc                    E        correct              13 81.2  late 
##  6 11cc                    E        incorrect             3 18.8  late 
##  7 11cc                    H        correct              14 87.5  late 
##  8 11cc                    H        incorrect             2 12.5  late 
##  9 139cc                   E        correct              14 87.5  late 
## 10 139cc                   E        incorrect             2 12.5  late 
## # ... with 42 more rows
```
…
```r
sample3
```

```
## # A tibble: 52 x 6
##    RECORDING_SESSION_LABEL aux_type response_accuracy count  prop Group
##    <chr>                   <chr>    <chr>             <int> <dbl> <chr>
##  1 118cc                   E        correct              14 87.5  late 
##  2 118cc                   E        incorrect             2 12.5  late 
##  3 118cc                   H        correct              15 93.8  late 
##  4 118cc                   H        incorrect             1  6.25 late 
##  5 11cc                    E        correct              13 81.2  late 
##  6 11cc                    E        incorrect             3 18.8  late 
##  7 11cc                    H        correct              14 87.5  late 
##  8 11cc                    H        incorrect             2 12.5  late 
##  9 139cc                   E        correct              14 87.5  late 
## 10 139cc                   E        incorrect             2 12.5  late 
## # ... with 42 more rows
```
…
```
## See spec(...) for full column specifications.
```

```r
reading2 <-  reading %>% 
  select(file:TOTAL_DURATION)
reading2
```

```
## # A tibble: 692 x 11
##    file   grammaticality practice question   response_accura… sentence    
##    <chr>  <chr>          <chr>    <chr>      <chr>            <chr>       
##  1 File … A              1        Is the se… correct          Sandra y Mi…
##  2 File … G              1        Is the se… correct          El director…
##  3 File … G              1        Is the se… incorrect        El investig…
##  4 File … A              1        Is the se… correct          El abogado …
##  5 File … G              1        Is the se… correct          El doctor l…
##  6 File … A              2        Is the se… incorrect        Lidia y sus…
##  7 File … A              2        Is the se… incorrect        Rosa y Fran…
##  8 File … G              2        Is the se… correct          Ana había p…
##  9 File … G              2        Is the se… correct          Chris y Sar…
## 10 File … G              4        Is the se… correct          La secretar…
## # ... with 682 more rows, and 5 more variables: sentence_type <chr>,
## #   switch_type <chr>, GAZE_DURATION <int>,
## #   REGRESSION_PATH_DURATION <int>, TOTAL_DURATION <int>
```
…
# Inferential Statistics

Let's now get into practicing some very basic stats. We'll work with the sample dataset again.


```r
sample3
```

```
## # A tibble: 52 x 6
##    RECORDING_SESSION_LABEL aux_type response_accuracy count  prop Group
##    <chr>                   <fct>    <chr>             <int> <dbl> <chr>
##  1 118cc                   E        correct              14 87.5  late 
##  2 118cc                   E        incorrect             2 12.5  late 
##  3 118cc                   H        correct              15 93.8  late 
##  4 118cc                   H        incorrect             1  6.25 late 
##  5 11cc                    E        correct              13 81.2  late 
##  6 11cc                    E        incorrect             3 18.8  late 
##  7 11cc                    H        correct              14 87.5  late 
##  8 11cc                    H        incorrect             2 12.5  late 
##  9 139cc                   E        correct              14 87.5  late 
## 10 139cc                   E        incorrect             2 12.5  late 
## # ... with 42 more rows
```

Let's say that we only wanted to work with the "correct" rows and wanted to compare the mean correct items between "estar" and "haber". This means that we are testing two means from the same group of people, so we will need to conduct a **paired t-test**. 

First, let's limit to only correct items.


```r
sample_correct <- sample3 %>% 
  filter(response_accuracy == "correct")
sample_correct
```

```
## # A tibble: 26 x 6
##    RECORDING_SESSION_LABEL aux_type response_accuracy count  prop Group
##    <chr>                   <fct>    <chr>             <int> <dbl> <chr>
##  1 118cc                   E        correct              14  87.5 late 
##  2 118cc                   H        correct              15  93.8 late 
##  3 11cc                    E        correct              13  81.2 late 
##  4 11cc                    H        correct              14  87.5 late 
##  5 139cc                   E        correct              14  87.5 late 
##  6 139cc                   H        correct              15  93.8 late 
##  7 14cc                    E        correct              10  62.5 late 
##  8 14cc                    H        correct              13  81.2 late 
##  9 15cc                    E        correct              14  87.5 late 
## 10 15cc                    H        correct              15  93.8 late 
## # ... with 16 more rows
```
…
The below chunk is on demonstrating where means in the statistical outputs come from. In the case of 2-samples t-tests: it is the mean for each group. In the case of paired t-tests, then the mean is the difference between the two groups. 


```r
sample2
```

```
## # A tibble: 52 x 6
##    RECORDING_SESSION_LABEL aux_type response_accuracy count  prop Group
##    <fct>                   <fct>    <fct>             <int> <dbl> <fct>
##  1 118cc                   E        correct              14 87.5  late 
##  2 118cc                   E        incorrect             2 12.5  late 
##  3 118cc                   H        correct              15 93.8  late 
##  4 118cc                   H        incorrect             1  6.25 late 
##  5 11cc                    E        correct              13 81.2  late 
##  6 11cc                    E        incorrect             3 18.8  late 
##  7 11cc                    H        correct              14 87.5  late 
##  8 11cc                    H        incorrect             2 12.5  late 
##  9 139cc                   E        correct              14 87.5  late 
## 10 139cc                   E        incorrect             2 12.5  late 
## # ... with 42 more rows
```
…
