…
And we can use this with `mutate` in a data frame.


```r
df %>% 
  mutate(
    vowels = str_count(word, "[aeiou]"),
    consonants = str_count(word, "[^aeiou]")
  )
```

```
## # A tibble: 980 x 4
##    word         i vowels consonants
##    <chr>    <int>  <int>      <int>
##  1 a            1      1          0
##  2 able         2      2          2
##  3 about        3      3          2
##  4 absolute     4      4          4
##  5 accept       5      2          4
##  6 account      6      3          4
##  7 achieve      7      4          3
##  8 across       8      2          4
##  9 act          9      1          2
## 10 active      10      3          3
## # ... with 970 more rows
```
…
There is a similar function `extract()` from the `tidyr` package that works like `str_match()` but where it's all kept in a data frame and the results are placed in their own columns:


```r
tibble(sentence = sentences) %>% 
  extract(
    sentence, c("article", "noun"), #named columns
    "(a|the) ([^ ])",
    remove = FALSE #necessary to retain empty matches as well
  )
```

```
## # A tibble: 720 x 3
##    sentence                                    article noun 
##    <chr>                                       <chr>   <chr>
##  1 The birch canoe slid on the smooth planks.  the     s    
##  2 Glue the sheet to the dark blue background. the     s    
##  3 It's easy to tell the depth of a well.      the     d    
##  4 These days a chicken leg is a rare dish.    a       c    
##  5 Rice is often served in round bowls.        <NA>    <NA> 
##  6 The juice of lemons makes fine punch.       <NA>    <NA> 
##  7 The box was thrown beside the parked truck. the     p    
##  8 The hogs were fed chopped corn and garbage. <NA>    <NA> 
##  9 Four hours of steady work faced us.         <NA>    <NA> 
## 10 Large size in stockings is hard to sell.    <NA>    <NA> 
## # ... with 710 more rows
```
…
```
##  [1] "Jan" "Feb" "Mar" "Apr" "May" "Jun" "Jul" "Aug" "Sep" "Oct" "Nov"
## [12] "Dec"
```

We are going to practice some additional functions with a built-in dataset called `gss_cat`. 


```r
gss_cat
```

```
## # A tibble: 21,483 x 9
##     year marital         age race  rincome  partyid  relig  denom  tvhours
##    <int> <fct>         <int> <fct> <fct>    <fct>    <fct>  <fct>    <int>
##  1  2000 Never married    26 White $8000 t… Ind,nea… Prote… South…      12
##  2  2000 Divorced         48 White $8000 t… Not str… Prote… Bapti…      NA
##  3  2000 Widowed          67 White Not app… Indepen… Prote… No de…       2
##  4  2000 Never married    39 White Not app… Ind,nea… Ortho… Not a…       4
##  5  2000 Divorced         25 White Not app… Not str… None   Not a…       1
##  6  2000 Married          25 White $20000 … Strong … Prote… South…      NA
##  7  2000 Never married    36 White $25000 … Not str… Chris… Not a…       3
##  8  2000 Divorced         44 White $7000 t… Ind,nea… Prote… Luthe…      NA
##  9  2000 Married          44 White $25000 … Not str… Prote… Other        0
## 10  2000 Married          47 White $25000 … Strong … Prote… South…       3
## # ... with 21,473 more rows
```
…
